{
  "images" : [
    {
      "filename" : "lock.svg",
      "idiom" : "universal"
    },
    {
      "filename" : "lock-1.svg",
      "idiom" : "ipad"
    }
  ],
  "info" : {
    "author" : "xcode",
    "version" : 1
  }
}
