<svg width="14" height="20" viewBox="0 0 14 20" fill="none" xmlns="http://www.w3.org/2000/svg">
<path fill-rule="evenodd" clip-rule="evenodd" d="M3 1.5H11C11.8284 1.5 12.5 2.17157 12.5 3V16.7489L8.02058 14.091C7.39141 13.7176 6.6086 13.7176 5.97942 14.091L1.5 16.7489V3C1.5 2.17157 2.17158 1.5 3 1.5ZM14 3V17.6389V17.639V17.6623V18.505C14 18.8926 13.5782 19.1328 13.2449 18.935L12.5202 18.505L12.5001 18.4931L12.5 18.493L7.25515 15.381C7.09785 15.2876 6.90215 15.2876 6.74485 15.381L1.5 18.493L1.49993 18.4931L1.47983 18.505L0.755146 18.935C0.421848 19.1328 0 18.8926 0 18.505V17.6623V17.639V17.6389V3C0 1.34315 1.34315 0 3 0H11C12.6569 0 14 1.34315 14 3ZM6.8125 11.1829C6.502 11.1829 6.25 10.9503 6.25 10.6637V8.64639H4.0625C3.75125 8.64639 3.5 8.4138 3.5 8.1272C3.5 7.84061 3.75125 7.60801 4.0625 7.60801H6.25V5.59154C6.25 5.30495 6.502 5.07235 6.8125 5.07235C7.123 5.07235 7.375 5.30495 7.375 5.59154V7.60801H9.56225C9.87275 7.60801 10.1247 7.84061 10.1247 8.1272C10.1247 8.4138 9.87275 8.64639 9.56225 8.64639H7.375V10.6637C7.375 10.9503 7.123 11.1829 6.8125 11.1829Z" fill="#130F26"/>
</svg>
