<svg width="19" height="19" viewBox="0 0 19 19" fill="none" xmlns="http://www.w3.org/2000/svg">
<path fill-rule="evenodd" clip-rule="evenodd" d="M13.5501 0C13.1083 0 12.7501 0.358172 12.7501 0.8C12.7501 1.24183 13.1083 1.6 13.5501 1.6H15.7093L8.33434 8.97498C8.02192 9.2874 8.02192 9.79393 8.33434 10.1064C8.64676 10.4188 9.15329 10.4188 9.46571 10.1064L16.9001 2.67194V4.94999C16.9001 5.39182 17.2583 5.74999 17.7001 5.74999C18.1419 5.74999 18.5001 5.39182 18.5001 4.94999V0.849994C18.5001 0.616344 18.4 0.406089 18.2402 0.259827C18.094 0.100136 17.8837 0 17.6501 0H13.5501ZM1.5 9.09998C1.5 4.92968 5.3506 1.84998 9.75 1.84998V0.349985C4.76056 0.349985 0 3.88145 0 9.09998C0 14.2086 4.14137 18.35 9.25 18.35C14.4685 18.35 18 13.5894 18 8.59998H16.5C16.5 12.9994 13.4203 16.85 9.25 16.85C4.96979 16.85 1.5 13.3802 1.5 9.09998Z" fill="black"/>
</svg>
